dplyr
…
Together these properties make it easy to chain together multiple simple steps to achieve a complex result. Let’s dive in and see how these verbs work.

first install dplyr and call the library:

install.packages("dplyr")

## Error in install.packages : Updating loaded packages

library("dplyr")

We can call head to see the first 10 rows of a dataset. I am using an available dataset which can be found on the dplyr library

starwars

## # A tibble: 87 x 14
##    name  height  mass hair_color skin_color eye_color birth_year sex  
##    <chr>  <int> <dbl> <chr>      <chr>      <chr>          <dbl> <chr>
##  1 Luke~    172    77 blond      fair       blue            19   male 
##  2 C-3PO    167    75 <NA>       gold       yellow         112   none 
##  3 R2-D2     96    32 <NA>       white, bl~ red             33   none 
##  4 Dart~    202   136 none       white      yellow          41.9 male 
##  5 Leia~    150    49 brown      light      brown           19   fema~
##  6 Owen~    178   120 brown, gr~ light      blue            52   male 
##  7 Beru~    165    75 brown      light      blue            47   fema~
##  8 R5-D4     97    32 <NA>       white, red red             NA   none 
##  9 Bigg~    183    84 black      light      brown           24   male 
## 10 Obi-~    182    77 auburn, w~ fair       blue-gray       57   male 
## # ... with 77 more rows, and 6 more variables: gender <chr>,
## #   homeworld <chr>, species <chr>, films <list>, vehicles <list>,
## #   starships <list>
…
