r_base_vs_tidyverse.utf8.md
…
Create new columns with calculations done within groups

For example, center the measurements of “Petal.Width” by subtracting the mean within species.

tidyverse

iris %>% 
group_by(Species) %>% 
    mutate(Petal.Width.centered = Petal.Width - mean(Petal.Width)) %>% 
        ungroup() # remove any groupings from downstream analysis

## # A tibble: 150 x 8
##    Sepal.Length Sepal.Width Petal.Length Petal.Width Species Petal.Ratio
##           <dbl>       <dbl>        <dbl>       <dbl> <fct>         <dbl>
##  1          5.1         3.5          1.4         0.2 setosa         7.00
##  2          4.9         3            1.4         0.2 setosa         7.00
##  3          4.7         3.2          1.3         0.2 setosa         6.5 
##  4          4.6         3.1          1.5         0.2 setosa         7.5 
##  5          5           3.6          1.4         0.2 setosa         7.00
##  6          5.4         3.9          1.7         0.4 setosa         4.25
##  7          4.6         3.4          1.4         0.3 setosa         4.67
##  8          5           3.4          1.5         0.2 setosa         7.5 
##  9          4.4         2.9          1.4         0.2 setosa         7.00
## 10          4.9         3.1          1.5         0.1 setosa        15   
## # … with 140 more rows, and 2 more variables: Sepal.Ratio <dbl>,
## #   Petal.Width.centered <dbl>
…
